             =     =
       /     |     |     \
        \ . -- ~~~ -- . /
  /   .-~               ~-.   \
   \ /     _         _     \ /
    /       \       /       \ 
|--|       0         0       |--|
   |                         |
|--|         _______         |--|
    \       /       \       /
   / \                     / \
  \   `-.               .-'   /
        / ~- . ___ . -~  \
       \     |     |      /
             =     =
%
             =     =
       /     |     |     \
        \ . -- ~~~ -- . /
  /   .-~               ~-.   \
   \ /     _         _     \ /
    /       \       /       \ 
|--|       0         0       |--|
   |                         |
|--|                         |--|
    \       \_______/       /
   / \                     / \
  \   `-.               .-'   /
        / ~- . ___ . -~  \
       \     |     |      /
             =     =
%